1 1 4
1 2 4
2 2 7
2 2 8
2 2 9
2 2 10
2 2 11
2 2 12
3 2 13
1 3 4
2 3 7
2 3 8
2 3 9
2 3 10
2 3 11
2 3 12
5 3 18
1 3 18
3 4 1
1 4 4
1 4 18
1 5 4
1 5 18
2 6 1
2 6 2
1 6 4
1 6 18
2 7 1
2 7 2
1 7 4
1 7 18
3 7 21
2 8 1
2 8 2
1 8 4
1 8 5
1 8 6
1 8 7
1 8 8
4 8 9
1 8 10
1 8 11
1 8 12
1 8 13
1 8 14
1 8 15
1 8 16
1 8 17
1 8 18
2 9 1
2 9 2
2 9 21
2 9 22
2 10 21
2 10 22
3 11 11
2 11 12
2 11 13
2 11 14
2 12 12
2 12 13
2 12 14
2 13 12
2 13 13
2 13 14
6 10 10