5 1 1
1 1 1
2 1 3
2 1 4
2 1 10
2 1 11
2 1 12
2 1 17
2 1 18
5 1 20
1 1 20
1 2 1
2 2 3
2 2 4
2 2 10
2 2 11
2 2 12
2 2 17
2 2 18
1 2 20
1 3 1
1 3 20
1 4 1
3 4 3
3 4 6
3 4 9
3 4 13
3 4 15
3 4 17
1 4 20
1 5 1
1 5 20
1 6 1
1 6 8
1 6 20
1 7 1
1 7 2
1 7 3
1 7 4
1 7 5
1 7 6
1 7 7
1 7 8
1 7 9
1 7 10
1 7 11
1 7 12
1 7 13
1 7 14
1 7 15
1 7 16
1 7 17
1 7 18
1 7 19
1 7 20
1 8 1
1 9 1
1 10 1
3 10 8
3 10 10
3 10 17
2 10 19
2 10 20
1 11 1
2 11 19
2 11 20
4 12 1
2 12 6
2 12 7
2 12 8
2 12 13
2 12 14
2 12 19
2 12 20
2 13 6
2 13 7
2 13 8
2 13 13
2 13 14
2 14 13
2 14 14