3 0 20
5 2 3
1 2 3
3 2 18
2 2 20
3 2 22
1 3 3
2 3 19
2 3 20
2 3 21
1 4 3
1 4 4
1 4 5
1 4 6
2 4 18
2 4 19
2 4 20
2 4 21
2 4 22
1 5 6
2 5 19
2 5 20
2 5 21
1 6 6
2 6 20
2 7 1
2 7 2
1 7 6
2 8 1
2 8 2
1 8 6
1 8 7
4 8 8
1 8 9
1 8 10
1 8 11
1 8 12
1 8 13
1 8 14
1 8 15
2 9 1
2 9 2
2 10 1
2 10 2
2 12 8
2 12 9
2 12 10
2 12 11
2 12 12
3 13 11
2 14 10
2 14 11
2 14 12
2 14 13
2 14 14
